Introduction to mrgsolveModels and Events
…
Pipeline to dplyr functions

mod %>% mrgsim() %>% mutate(arm = 1)

## # A tibble: 361 x 9
##       ID  time   GUT  CENT PERIPH    CE EFFECT    CP   arm
##    <dbl> <dbl> <dbl> <dbl>  <dbl> <dbl>  <dbl> <dbl> <dbl>
##  1     1   0       0     0      0     0    157     0     1
##  2     1   0.1     0     0      0     0    157     0     1
##  3     1   0.2     0     0      0     0    157     0     1
##  4     1   0.3     0     0      0     0    157     0     1
##  5     1   0.4     0     0      0     0    157     0     1
##  6     1   0.5     0     0      0     0    157     0     1
##  7     1   0.6     0     0      0     0    157     0     1
##  8     1   0.7     0     0      0     0    157     0     1
##  9     1   0.8     0     0      0     0    157     0     1
## 10     1   0.9     0     0      0     0    157     0     1
## #  with 351 more rows
…
